Biostat 203B Homework 4
…
## Warning: `as.tibble()` is deprecated, use `as_tibble()` (but mind the new semantics).
## This warning is displayed once per session.

  icd %>% print()

## # A tibble: 1,083 x 2
##    icd9_code long_title                                                         
##    <chr>     <chr>                                                              
##  1 630       Hydatidiform mole                                                  
##  2 632       Missed abortion                                                    
##  3 650       Normal delivery                                                    
##  4 677       Late effect of complication of pregnancy, childbirth, and the puer
##  5 63300     Abdominal pregnancy without intrauterine pregnancy                 
##  6 63301     Abdominal pregnancy with intrauterine pregnancy                    
##  7 63310     Tubal pregnancy without intrauterine pregnancy                     
##  8 63311     Tubal pregnancy with intrauterine pregnancy                        
##  9 63320     Ovarian pregnancy without intrauterine pregnancy                   
## 10 63321     Ovarian pregnancy with intrauterine pregnancy                      
## #  with 1,073 more rows
…
study_subjects %>%
  collect() %>%
  mutate(ethnic_group = case_when(
    str_detect(ethnicity, "^ASIAN") ~ "ASIAN",
    str_detect(ethnicity, "^BLACK") ~ "BLACK",
    str_detect(ethnicity, "^HISPANIC") ~ "HISPANIC",
    str_detect(ethnicity, "^WHITE") ~ "WHITE",
    ethnicity %in% unknown_ethnicity ~ NA_character_,
    TRUE ~ NA_character_
  )) %>%
  select(subject_id, gender, ethnic_group) %>%
  print() -> study_subjects

## # A tibble: 150 x 3
##    subject_id gender ethnic_group
##         <int> <chr>  <chr>       
##  1        655 F      HISPANIC    
##  2        722 F      WHITE       
##  3        891 F      ASIAN       
##  4       1763 F      WHITE       
##  5       1942 F      WHITE       
##  6       2070 F      WHITE       
##  7       2314 F      WHITE       
##  8       2735 F      WHITE       
##  9       2826 F      WHITE       
## 10       2908 F      WHITE       
## #  with 140 more rows
…
study_subjects %>%
  group_by(subject_id) %>%
  summarize(ethnic_group = most(ethnic_group)) %>%
  ungroup() %>%
  mutate(ethnic_group = ifelse(is.na(ethnic_group), 
                               "UNKNOWN", ethnic_group)) %>%
  print() -> subject_ethnic_groups

## # A tibble: 150 x 2
##    subject_id ethnic_group
##         <int> <chr>       
##  1        655 HISPANIC    
##  2        722 WHITE       
##  3        891 ASIAN       
##  4       1763 WHITE       
##  5       1942 WHITE       
##  6       2070 WHITE       
##  7       2314 WHITE       
##  8       2735 WHITE       
##  9       2826 WHITE       
## 10       2908 WHITE       
## #  with 140 more rows

study_subjects %>%
  select(subject_id, gender) %>%
  left_join(subject_ethnic_groups, by = "subject_id") %>%
  print() -> study_subjects

## # A tibble: 150 x 3
##    subject_id gender ethnic_group
##         <int> <chr>  <chr>       
##  1        655 F      HISPANIC    
##  2        722 F      WHITE       
##  3        891 F      ASIAN       
##  4       1763 F      WHITE       
##  5       1942 F      WHITE       
##  6       2070 F      WHITE       
##  7       2314 F      WHITE       
##  8       2735 F      WHITE       
##  9       2826 F      WHITE       
## 10       2908 F      WHITE       
## #  with 140 more rows
…
icu_diagnose %>% as.tibble()

## # A tibble: 154 x 9
##    subject_id hadm_id   age drg_severity los   icd9_code principal_dx gender
##         <int>   <int> <dbl>        <dbl> <lgl> <chr>     <lgl>        <chr> 
##  1        655  179487    34            3 FALSE 64864     TRUE         F     
##  2        722  116649    45            2 FALSE 67454     TRUE         F     
##  3        891  191029    37            1 FALSE 66632     TRUE         F     
##  4       1763  153895    32            1 TRUE  67454     TRUE         F     
##  5       1942  129875    40            1 FALSE 63590     TRUE         F     
##  6       2070  127940    35            1 FALSE 67323     TRUE         F     
##  7       2314  152707    33            1 FALSE 632       TRUE         F     
##  8       2735  118482    23            2 FALSE 66551     TRUE         F     
##  9       2826  135470    36            1 FALSE 63320     TRUE         F     
## 10       2908  165906    18            1 FALSE 64804     TRUE         F     
## #  with 144 more rows, and 1 more variable: ethnic_group <chr>
…
