Biostat 203B Homework 2
…
    icustay <- left_join(icustays, patient, by = "SUBJECT_ID")
    icustay %>% print(width = Inf)

## # A tibble: 61,532 x 19
##    ROW_ID.x SUBJECT_ID HADM_ID ICUSTAY_ID DBSOURCE FIRST_CAREUNIT LAST_CAREUNIT
##       <dbl>      <dbl>   <dbl>      <dbl> <chr>    <chr>          <chr>        
##  1      365        268  110404     280836 carevue  MICU           MICU         
##  2      366        269  106296     206613 carevue  MICU           MICU         
##  3      367        270  188028     220345 carevue  CCU            CCU          
##  4      368        271  173727     249196 carevue  MICU           SICU         
##  5      369        272  164716     210407 carevue  CCU            CCU          
##  6      370        273  158689     241507 carevue  MICU           MICU         
##  7      371        274  130546     254851 carevue  MICU           MICU         
##  8      372        275  129886     219649 carevue  CCU            CCU          
##  9      373        276  135156     206327 carevue  CCU            CCU          
## 10      374        277  171601     272866 carevue  NICU           NICU         
##    FIRST_WARDID LAST_WARDID INTIME              OUTTIME               LOS
##           <dbl>       <dbl> <dttm>              <dttm>              <dbl>
##  1           52          52 2198-02-14 23:27:38 2198-02-18 05:26:11 3.25 
##  2           52          52 2170-11-05 11:05:29 2170-11-08 17:46:57 3.28 
##  3           57          57 2128-06-24 15:05:20 2128-06-27 12:32:29 2.89 
##  4           52          23 2120-08-07 23:12:42 2120-08-10 00:39:04 2.06 
##  5           57          57 2186-12-25 21:08:04 2186-12-27 12:01:13 1.62 
##  6           52          52 2141-04-19 06:12:05 2141-04-20 17:52:11 1.49 
##  7           12          12 2114-06-28 22:28:44 2114-07-07 18:01:16 8.81 
##  8            7           7 2170-10-07 11:28:53 2170-10-14 14:38:07 7.13 
##  9           57          57 2147-11-20 09:02:23 2147-11-21 17:08:52 1.34 
## 10           56          56 2132-10-21 21:11:46 2132-10-22 14:44:48 0.731
##    ROW_ID.y GENDER DOB                 DOD                 DOD_HOSP           
##       <dbl> <chr>  <dttm>              <dttm>              <dttm>             
##  1      251 F      2132-02-21 00:00:00 2198-02-18 00:00:00 2198-02-18 00:00:00
##  2      252 M      2130-09-30 00:00:00 NA                  NA                 
##  3      253 M      2048-05-26 00:00:00 NA                  NA                 
##  4      254 F      2074-11-30 00:00:00 NA                  NA                 
##  5      255 M      2119-11-21 00:00:00 NA                  NA                 
##  6      256 M      2107-08-10 00:00:00 NA                  NA                 
##  7      257 M      2048-05-18 00:00:00 2122-09-07 00:00:00 2122-09-07 00:00:00
##  8      258 M      2088-08-07 00:00:00 2170-10-19 00:00:00 2170-10-19 00:00:00
##  9      259 M      2112-01-16 00:00:00 NA                  NA                 
## 10      260 M      2132-10-21 00:00:00 NA                  NA                 
##    DOD_SSN             EXPIRE_FLAG
##    <dttm>                    <dbl>
##  1 NA                            1
##  2 NA                            0
##  3 NA                            0
##  4 NA                            0
##  5 NA                            0
##  6 NA                            0
##  7 NA                            1
##  8 2170-10-19 00:00:00           1
##  9 NA                            0
## 10 NA                            0
## #  with 61,522 more rows
…
    patient %>% print(width = Inf)

## # A tibble: 46,520 x 8
##    ROW_ID SUBJECT_ID GENDER DOB                 DOD                
##     <dbl>      <dbl> <chr>  <dttm>              <dttm>             
##  1    234        249 F      2075-03-13 00:00:00 NA                 
##  2    235        250 F      2164-12-27 00:00:00 2188-11-22 00:00:00
##  3    236        251 M      2090-03-15 00:00:00 NA                 
##  4    237        252 M      2078-03-06 00:00:00 NA                 
##  5    238        253 F      2089-11-26 00:00:00 NA                 
##  6    239        255 M      2109-08-05 00:00:00 NA                 
##  7    240        256 M      2086-07-31 00:00:00 NA                 
##  8    241        257 F      2031-04-03 00:00:00 2121-07-08 00:00:00
##  9    242        258 F      2124-09-19 00:00:00 NA                 
## 10    243        260 F      2105-03-23 00:00:00 NA                 
##    DOD_HOSP            DOD_SSN             EXPIRE_FLAG
##    <dttm>              <dttm>                    <dbl>
##  1 NA                  NA                            0
##  2 2188-11-22 00:00:00 NA                            1
##  3 NA                  NA                            0
##  4 NA                  NA                            0
##  5 NA                  NA                            0
##  6 NA                  NA                            0
##  7 NA                  NA                            0
##  8 2121-07-08 00:00:00 2121-07-08 00:00:00           1
##  9 NA                  NA                            0
## 10 NA                  NA                            0
## #  with 46,510 more rows

    icustay %>% print(width = Inf)

## # A tibble: 61,532 x 12
##    ROW_ID SUBJECT_ID HADM_ID ICUSTAY_ID DBSOURCE FIRST_CAREUNIT LAST_CAREUNIT
##     <dbl>      <dbl>   <dbl>      <dbl> <chr>    <chr>          <chr>        
##  1    365        268  110404     280836 carevue  MICU           MICU         
##  2    366        269  106296     206613 carevue  MICU           MICU         
##  3    367        270  188028     220345 carevue  CCU            CCU          
##  4    368        271  173727     249196 carevue  MICU           SICU         
##  5    369        272  164716     210407 carevue  CCU            CCU          
##  6    370        273  158689     241507 carevue  MICU           MICU         
##  7    371        274  130546     254851 carevue  MICU           MICU         
##  8    372        275  129886     219649 carevue  CCU            CCU          
##  9    373        276  135156     206327 carevue  CCU            CCU          
## 10    374        277  171601     272866 carevue  NICU           NICU         
##    FIRST_WARDID LAST_WARDID INTIME              OUTTIME               LOS
##           <dbl>       <dbl> <dttm>              <dttm>              <dbl>
##  1           52          52 2198-02-14 23:27:38 2198-02-18 05:26:11 3.25 
##  2           52          52 2170-11-05 11:05:29 2170-11-08 17:46:57 3.28 
##  3           57          57 2128-06-24 15:05:20 2128-06-27 12:32:29 2.89 
##  4           52          23 2120-08-07 23:12:42 2120-08-10 00:39:04 2.06 
##  5           57          57 2186-12-25 21:08:04 2186-12-27 12:01:13 1.62 
##  6           52          52 2141-04-19 06:12:05 2141-04-20 17:52:11 1.49 
##  7           12          12 2114-06-28 22:28:44 2114-07-07 18:01:16 8.81 
##  8            7           7 2170-10-07 11:28:53 2170-10-14 14:38:07 7.13 
##  9           57          57 2147-11-20 09:02:23 2147-11-21 17:08:52 1.34 
## 10           56          56 2132-10-21 21:11:46 2132-10-22 14:44:48 0.731
## #  with 61,522 more rows

    chart %>% print(width = Inf)

## # A tibble: 1,048,575 x 15
##    ROW_ID SUBJECT_ID HADM_ID ICUSTAY_ID ITEMID CHARTTIME     STORETIME      CGID
##     <dbl>      <dbl>   <dbl>      <dbl>  <dbl> <chr>         <chr>         <dbl>
##  1    788         36  165660     241249 223834 5/12/34 12:00 5/12/34 13:56 17525
##  2    789         36  165660     241249 223835 5/12/34 12:00 5/12/34 13:56 17525
##  3    790         36  165660     241249 224328 5/12/34 12:00 5/12/34 12:18 20823
##  4    791         36  165660     241249 224329 5/12/34 12:00 5/12/34 12:19 20823
##  5    792         36  165660     241249 224330 5/12/34 12:00 5/12/34 12:19 20823
##  6    793         36  165660     241249 224331 5/12/34 12:00 5/12/34 12:19 20823
##  7    794         36  165660     241249 224332 5/12/34 12:00 5/12/34 14:44 17525
##  8    795         36  165660     241249 224663 5/12/34 12:00 5/12/34 14:44 17525
##  9    796         36  165660     241249 224665 5/12/34 12:00 5/12/34 14:44 17525
## 10    797         36  165660     241249 220224 5/12/34 12:35 5/12/34 12:38 20889
##     VALUE VALUENUM VALUEUOM WARNING ERROR RESULTSTATUS STOPPED
##     <dbl>    <dbl> <chr>      <dbl> <dbl> <lgl>        <lgl>  
##  1  15       15    L/min          0     0 NA           NA     
##  2 100      100    <NA>           0     0 NA           NA     
##  3   0.37     0.37 <NA>           0     0 NA           NA     
##  4   6        6    min            0     0 NA           NA     
##  5   2.5      2.5  <NA>           0     0 NA           NA     
##  6   0        0    ml/hr          0     0 NA           NA     
##  7   3        3    <NA>           0     0 NA           NA     
##  8   8        8    <NA>           0     0 NA           NA     
##  9   1.11     1.11 <NA>           0     0 NA           NA     
## 10  58       58    mmHg           1     0 NA           NA     
## #  with 1,048,565 more rows

    item %>% print(width = Inf)

## # A tibble: 12,487 x 10
##    ROW_ID ITEMID LABEL                                       ABBREVIATION
##     <dbl>  <dbl> <chr>                                       <lgl>       
##  1    457    497 Patient controlled analgesia (PCA) [Inject] NA          
##  2    458    498 PCA Lockout (Min)                           NA          
##  3    459    499 PCA Medication                              NA          
##  4    460    500 PCA Total Dose                              NA          
##  5    461    501 PCV Exh Vt (Obser)                          NA          
##  6   1157    927 Allergy 2                                   NA          
##  7   1158    930 Ext                                         NA          
##  8   1159    935 Allergy 3                                   NA          
##  9   1160    938 blood cultures                              NA          
## 10   1161    940 trach care                                  NA          
##    DBSOURCE LINKSTO     CATEGORY UNITNAME PARAM_TYPE CONCEPTID
##    <chr>    <chr>       <chr>    <lgl>    <lgl>      <lgl>    
##  1 carevue  chartevents <NA>     NA       NA         NA       
##  2 carevue  chartevents <NA>     NA       NA         NA       
##  3 carevue  chartevents <NA>     NA       NA         NA       
##  4 carevue  chartevents <NA>     NA       NA         NA       
##  5 carevue  chartevents <NA>     NA       NA         NA       
##  6 carevue  chartevents <NA>     NA       NA         NA       
##  7 carevue  chartevents <NA>     NA       NA         NA       
##  8 carevue  chartevents <NA>     NA       NA         NA       
##  9 carevue  chartevents <NA>     NA       NA         NA       
## 10 carevue  chartevents <NA>     NA       NA         NA       
## #  with 12,477 more rows

Compile the tibble

Select the first systolic blood pressure measurement information. First, find potential values of ITEMID that correspond to systolic blood pressure. Then, substract the systolic blood pressure measurement information from CHARTEVENTS.csv and choose the first systolic blood pressure measurement based on the CHARTTIME for each unique patient. Only keep the SUBJECT_ID and the corresponding first systolic blood pressure measurement information.

    bloodp <- item %>%
      filter(str_detect(LABEL, "systolic")) %>%
      select(ITEMID, LABEL)
    bloodp2 <- inner_join(chart, bloodp, by = "ITEMID") %>%
      group_by(SUBJECT_ID) %>%
      filter(rank(CHARTTIME) == 1) %>%
      select(SUBJECT_ID, LABEL)
    bloodp2 %>% print(width = Inf)

## # A tibble: 420 x 2
## # Groups:   SUBJECT_ID [420]
##    SUBJECT_ID LABEL                               
##         <dbl> <chr>                               
##  1         23 Arterial Blood Pressure systolic    
##  2         36 Non Invasive Blood Pressure systolic
##  3         34 Non Invasive Blood Pressure systolic
##  4         85 Non Invasive Blood Pressure systolic
##  5        107 Non Invasive Blood Pressure systolic
##  6        109 Non Invasive Blood Pressure systolic
##  7        124 Non Invasive Blood Pressure systolic
##  8        165 Non Invasive Blood Pressure systolic
##  9        154 Non Invasive Blood Pressure systolic
## 10        188 Non Invasive Blood Pressure systolic
## #  with 410 more rows

Select the first ICU stay information of unique patients. Based on the INTIME, choose the first ICU stay of each unique patient from ICUSTAYS.csv. Only keep the SUBJECT_ID and the corresponding first ICU stay information.

    first_icu <- icustay %>%
      group_by(SUBJECT_ID) %>%
      filter(rank(INTIME) == 1) %>%
      select(SUBJECT_ID, FIRST_CAREUNIT)
    first_icu %>% print(width = Inf)

## # A tibble: 46,476 x 2
## # Groups:   SUBJECT_ID [46,476]
##    SUBJECT_ID FIRST_CAREUNIT
##         <dbl> <chr>         
##  1        268 MICU          
##  2        269 MICU          
##  3        270 CCU           
##  4        271 MICU          
##  5        272 CCU           
##  6        273 MICU          
##  7        274 MICU          
##  8        275 CCU           
##  9        276 CCU           
## 10        277 NICU          
## #  with 46,466 more rows

Select the patients demographic and death information. First, through left joint patient information to admission information, every admission record is linked to one patient while the patient information shows up multiple times. Then, based on the information, whether the patient died within 30 days of hospital admission can be determined. Substract information for each unique patient. For each unique patient, once one admission record shows that the patient died within 30 days, this death information is kept. Only keep the SUBJECT_ID and the corresponding demographic and death information.

    pinfo <- left_join(admission, patient, by = "SUBJECT_ID") %>%
      mutate(dead30 = ((as.numeric(as.duration(DEATHTIME - ADMITTIME) / 86400)
                                  ) <= 30)) %>%
      group_by(SUBJECT_ID) %>%
      filter(rank(desc(dead30)) == 1) %>%
      select(SUBJECT_ID, LANGUAGE: ETHNICITY, GENDER, DOB, dead30)
    pinfo %>% print(width = Inf)

## # A tibble: 46,480 x 8
## # Groups:   SUBJECT_ID [46,480]
##    SUBJECT_ID LANGUAGE RELIGION          MARITAL_STATUS ETHNICITY            
##         <dbl> <chr>    <chr>             <chr>          <chr>                
##  1         22 <NA>     UNOBTAINABLE      MARRIED        WHITE                
##  2         23 <NA>     CATHOLIC          MARRIED        WHITE                
##  3         24 <NA>     PROTESTANT QUAKER SINGLE         WHITE                
##  4         25 <NA>     UNOBTAINABLE      MARRIED        WHITE                
##  5         26 <NA>     CATHOLIC          SINGLE         UNKNOWN/NOT SPECIFIED
##  6         27 <NA>     CATHOLIC          <NA>           WHITE                
##  7         28 <NA>     CATHOLIC          MARRIED        WHITE                
##  8         30 <NA>     CATHOLIC          MARRIED        UNKNOWN/NOT SPECIFIED
##  9         31 <NA>     CATHOLIC          MARRIED        WHITE                
## 10         32 <NA>     UNOBTAINABLE      <NA>           WHITE                
##    GENDER DOB                 dead30
##    <chr>  <dttm>              <lgl> 
##  1 F      2131-05-07 00:00:00 NA    
##  2 M      2082-07-17 00:00:00 NA    
##  3 M      2100-05-31 00:00:00 NA    
##  4 M      2101-11-21 00:00:00 NA    
##  5 M      2054-05-04 00:00:00 NA    
##  6 F      2191-11-30 00:00:00 NA    
##  7 M      2103-04-15 00:00:00 NA    
##  8 M      1872-10-14 00:00:00 NA    
##  9 M      2036-05-17 00:00:00 TRUE  
## 10 M      2124-09-29 00:00:00 NA    
## #  with 46,470 more rows

Compile the tibble. Full join all the information kept above by SUBJECT_ID. Then we get a tibble that contains the first ICU stay of unique patients, with the patients demographic information, the first systolic blood pressure measurement during ICU stay, and whether the patient died within 30 days of hospitcal admission.

    info <- pinfo %>%
      full_join(bloodp2, by = "SUBJECT_ID") %>%
      full_join(first_icu, by = "SUBJECT_ID")
    info %>% print(width = Inf)

## # A tibble: 46,520 x 10
## # Groups:   SUBJECT_ID [46,520]
##    SUBJECT_ID LANGUAGE RELIGION          MARITAL_STATUS ETHNICITY            
##         <dbl> <chr>    <chr>             <chr>          <chr>                
##  1         22 <NA>     UNOBTAINABLE      MARRIED        WHITE                
##  2         23 <NA>     CATHOLIC          MARRIED        WHITE                
##  3         24 <NA>     PROTESTANT QUAKER SINGLE         WHITE                
##  4         25 <NA>     UNOBTAINABLE      MARRIED        WHITE                
##  5         26 <NA>     CATHOLIC          SINGLE         UNKNOWN/NOT SPECIFIED
##  6         27 <NA>     CATHOLIC          <NA>           WHITE                
##  7         28 <NA>     CATHOLIC          MARRIED        WHITE                
##  8         30 <NA>     CATHOLIC          MARRIED        UNKNOWN/NOT SPECIFIED
##  9         31 <NA>     CATHOLIC          MARRIED        WHITE                
## 10         32 <NA>     UNOBTAINABLE      <NA>           WHITE                
##    GENDER DOB                 dead30 LABEL                           
##    <chr>  <dttm>              <lgl>  <chr>                           
##  1 F      2131-05-07 00:00:00 NA     <NA>                            
##  2 M      2082-07-17 00:00:00 NA     Arterial Blood Pressure systolic
##  3 M      2100-05-31 00:00:00 NA     <NA>                            
##  4 M      2101-11-21 00:00:00 NA     <NA>                            
##  5 M      2054-05-04 00:00:00 NA     <NA>                            
##  6 F      2191-11-30 00:00:00 NA     <NA>                            
##  7 M      2103-04-15 00:00:00 NA     <NA>                            
##  8 M      1872-10-14 00:00:00 NA     <NA>                            
##  9 M      2036-05-17 00:00:00 TRUE   <NA>                            
## 10 M      2124-09-29 00:00:00 NA     <NA>                            
##    FIRST_CAREUNIT
##    <chr>         
##  1 MICU          
##  2 CSRU          
##  3 CCU           
##  4 CCU           
##  5 CCU           
##  6 NICU          
##  7 CSRU          
##  8 CCU           
##  9 MICU          
## 10 TSICU         
## #  with 46,510 more rows
